Análise e visualização de dados com R
…
class: split-40
count: false

.left-code-pipe-auto[

```r
*df
```
]
 
.right-output-pipe-auto[

```
## # A tibble: 346,779 x 35
##      masp nome  descsitser nmefet tem_apost desccomi descinst descunid carga_hora remuner  teto judic ferias decter premio feriasprem
##     <dbl> <chr> <chr>      <chr>  <chr>     <chr>    <chr>    <chr>         <dbl>   <dbl> <dbl> <chr>  <dbl>  <dbl>  <dbl>      <dbl>
##  1 1.52e6 AARA… ATIVO      CABO   0         <NA>     CBMMG    5 CIA I…         40   5692      0 0         0   5692       0          0
##  2 1.21e7 AARA… ATIVO      AGENT… <NA>      <NA>     SEGURAN… UNID SO…         40   4778.     0 <NA>      0   4778.      0          0
##  3 1.16e7 AARO… ATIVO      ESPEC… <NA>      DAI-22   JUCEMG … <NA>             40  20491.     0 <NA>      0  20491.      0          0
##  4 1.61e6 AARO… ATIVO      SD 1 … <NA>      <NA>     POLICIA… RCAT/CPE         40   4508.    NA <NA>    601.  4508.     NA         NA
##  5 1.27e7 AARO… ATIVO      PROFE… <NA>      <NA>     SECRETA… EE PE P…         21   3124.     0 <NA>      0   3124.      0          0
##  6 1.40e7 ABAD… ATIVO      AUXIL… <NA>      <NA>     SECRETA… EE SAO …         30   1129.     0 <NA>      0   1129.      0          0
##  7 1.22e7 ABAD… ATIVO      AUXIL… <NA>      <NA>     SECRETA… EE DONA…         30   1129.     0 <NA>      0   1129.      0          0
##  8 9.70e6 ABAD… ATIVO      PROFE… <NA>      <NA>     SECRETA… EE BENE…         16   1602.     0 <NA>      0   1602.      0          0
##  9 1.22e7 ABAD… ATIVO      AUXIL… <NA>      <NA>     SECRETA… EE ARMA…         30   1129.     0 <NA>      0   1035.      0          0
## 10 1.24e7 ABAD… ATIVO      PROFE… <NA>      <NA>     SECRETA… EE DELA…         13   1345.     0 <NA>      0   1345.      0          0
## # … with 346,769 more rows, and 19 more variables: jetons <dbl>, eventual <dbl>, ir <dbl>, prev <dbl>, rem_pos <dbl>, bdmg <dbl>,
## #   cemig <dbl>, codemig <dbl>, cohab <dbl>, copasa <dbl>, emater <dbl>, epamig <dbl>, funpemg <dbl>, gasmig <dbl>, mgi <dbl>,
## #   mgs <dbl>, prodemge <dbl>, prominas <dbl>, emip <dbl>
```
…
.left-code-pipe-auto[

```r
df %>%  
* select(orgao = descinst,
*        vl_remuneracao_liquida = rem_pos)
```
]
 
.right-output-pipe-auto[

```
## # A tibble: 346,779 x 2
##    orgao                           vl_remuneracao_liquida
##    <chr>                                            <dbl>
##  1 CBMMG                                            9336.
##  2 SEGURANCA PUBLICA                                8234.
##  3 JUCEMG JUNTA COMERCIAL                          31055.
##  4 POLICIA MILITAR DE MINAS GERAIS                  8058.
##  5 SECRETARIA DE EDUCACAO                           5650.
##  6 SECRETARIA DE EDUCACAO                           2077.
##  7 SECRETARIA DE EDUCACAO                           2077.
##  8 SECRETARIA DE EDUCACAO                           2876.
##  9 SECRETARIA DE EDUCACAO                           2085.
## 10 SECRETARIA DE EDUCACAO                           2447.
## # … with 346,769 more rows
```
…
.left-code-pipe-auto[

```r
df %>%  
  select(orgao = descinst,  
         vl_remuneracao_liquida = rem_pos) %>%  
* mutate(vl_remuneracao_liquida_real = vl_remuneracao_liquida * ipca)
```
]
 
.right-output-pipe-auto[

```
## # A tibble: 346,779 x 3
##    orgao                           vl_remuneracao_liquida vl_remuneracao_liquida_real
##    <chr>                                            <dbl>                       <dbl>
##  1 CBMMG                                            9336.                       9357.
##  2 SEGURANCA PUBLICA                                8234.                       8252.
##  3 JUCEMG JUNTA COMERCIAL                          31055.                      31123.
##  4 POLICIA MILITAR DE MINAS GERAIS                  8058.                       8075.
##  5 SECRETARIA DE EDUCACAO                           5650.                       5663.
##  6 SECRETARIA DE EDUCACAO                           2077.                       2081.
##  7 SECRETARIA DE EDUCACAO                           2077.                       2081.
##  8 SECRETARIA DE EDUCACAO                           2876.                       2883.
##  9 SECRETARIA DE EDUCACAO                           2085.                       2089.
## 10 SECRETARIA DE EDUCACAO                           2447.                       2453.
## # … with 346,769 more rows
```
…
.left-code-pipe-auto[

```r
df %>%  
  select(orgao = descinst,  
         vl_remuneracao_liquida = rem_pos) %>%  
  mutate(vl_remuneracao_liquida_real = vl_remuneracao_liquida * ipca) %>%  
* group_by(orgao)
```
]
 
.right-output-pipe-auto[

```
## # A tibble: 346,779 x 3
## # Groups:   orgao [68]
##    orgao                           vl_remuneracao_liquida vl_remuneracao_liquida_real
##    <chr>                                            <dbl>                       <dbl>
##  1 CBMMG                                            9336.                       9357.
##  2 SEGURANCA PUBLICA                                8234.                       8252.
##  3 JUCEMG JUNTA COMERCIAL                          31055.                      31123.
##  4 POLICIA MILITAR DE MINAS GERAIS                  8058.                       8075.
##  5 SECRETARIA DE EDUCACAO                           5650.                       5663.
##  6 SECRETARIA DE EDUCACAO                           2077.                       2081.
##  7 SECRETARIA DE EDUCACAO                           2077.                       2081.
##  8 SECRETARIA DE EDUCACAO                           2876.                       2883.
##  9 SECRETARIA DE EDUCACAO                           2085.                       2089.
## 10 SECRETARIA DE EDUCACAO                           2447.                       2453.
## # … with 346,769 more rows
```
…
.right-output-pipe-auto[

```
## # A tibble: 68 x 3
##    orgao                                             vl_mediana     n
##    <chr>                                                  <dbl> <int>
##  1 ADMINISTRACAO PRISIONAL                                7247. 19286
##  2 ADVOCACIA GERAL DO ESTADO                             29243.   794
##  3 AGENCIA RMBH                                           9364.    35
##  4 AGENCIA RMVA                                           8338.    12
##  5 ARSAE MG                                              10837.    78
##  6 CASA CIVIL E COMUNICACAO SOCIAL                        8919.     1
##  7 CBMMG                                                 10439.  5788
##  8 CONTROLADORIA GERAL DO ESTADO                         19273.   191
##  9 DEOP DEPART DE OBRAS PUBLICAS                         12125.     4
## 10 DEPARTAMENTO DE EDIFICACOES E ESTRADAS DE RODAGEM      9885.  1169
## # … with 58 more rows
```
…
.right-output-pipe-auto[

```
## # A tibble: 68 x 3
##    orgao                                                    vl_mediana     n
##    <chr>                                                         <dbl> <int>
##  1 ADVOCACIA GERAL DO ESTADO                                    29243.   794
##  2 SECRETARIA DA FAZENDA                                        28705.  2918
##  3 CONTROLADORIA GERAL DO ESTADO                                19273.   191
##  4 SECRETARIA DE ESTADO DE CIDADES E DE INTEGRACAO REGIONAL     15319.     2
##  5 INSTITUTO DE GEOINFORMACAO E TECNOLOGIA                      13788.     2
##  6 FUNDACAO JOAO PINHEIRO                                       13151.   223
##  7 FEAM FUNDACAO DO MEIO AMBIENTE                               12979.   104
##  8 IGAM INST DE GESTAO DAS AGUAS                                12780.   150
##  9 DEOP DEPART DE OBRAS PUBLICAS                                12125.     4
## 10 SECRETARIA DO MEIO AMBIENTE                                  11558.   830
## # … with 58 more rows
```
…
.right-output-pipe-auto[

```
## # A tibble: 57 x 3
##    orgao                          vl_mediana     n
##    <chr>                               <dbl> <int>
##  1 ADVOCACIA GERAL DO ESTADO          29243.   794
##  2 SECRETARIA DA FAZENDA              28705.  2918
##  3 CONTROLADORIA GERAL DO ESTADO      19273.   191
##  4 FUNDACAO JOAO PINHEIRO             13151.   223
##  5 FEAM FUNDACAO DO MEIO AMBIENTE     12979.   104
##  6 IGAM INST DE GESTAO DAS AGUAS      12780.   150
##  7 SECRETARIA DO MEIO AMBIENTE        11558.   830
##  8 IMA INST MINEIRO AGROPECUARIA      11395.  1353
##  9 IEF INST EST DE FLORESTAS          10880.   769
## 10 ARSAE MG                           10837.    78
## # … with 47 more rows
```
…
